{
    "packageDirectories": [
      {
        "path": "force-app",
        "default": true
      }
    ],
    "namespace": "",
    "sfdcLoginUrl": "https://login.salesforce.com",
    "sourceApiVersion": "41.0"
}
